Type,Measurement,Measurement Unit ID,Price,Discounted Price,Serve For,Stock,Stock Unit ID,Product ID,Product Unique ID,Maximum order Quantity,Stock Threshold,Batras Recommendation
packet,5,1,200,190,Sold Out,100,5,716,UNIQue222,7,9,1
packet,10,1,400,380,Available,25,5,717,NUIUUHU67565,5,3,0
